﻿capital = 64

oob = "GER_1936"

set_fuel_ratio = 0.8
set_variable = {
    var = min_fuel
    value = 0.300
}
add_ideas = peace_training
add_to_tech_sharing_group = axis_research
# Starting tech
set_technology = {
	infantry_weapons = 1
	infantry_weapons1 = 1
	tech_recon = 1
	tech_support = 1		
	tech_engineers = 1
	tech_mountaineers = 1
	paratroopers = 1 
	motorised_infantry = 1
	interwar_antitank = 1
	gw_artillery = 1
	interwar_antiair = 1
	gwtank = 1
	basic_light_tank = 1
	improved_light_tank = 1
	basic_heavy_tank = 1
	early_fighter = 1
	fighter1 = 1
	scout_plane1 = 1
	early_bomber = 1
	tactical_bomber1 = 1
	CAS1 = 1
	naval_bomber1 = 1
	electronic_mechanical_engineering = 1
	radio = 1
	mobile_warfare = 1
	trade_interdiction = 1
	synth_oil_experiments = 1
	fuel_silos = 1
	fuel_refining = 1
}

if = {
	limit = {
		not = { has_dlc = "Man the Guns" }
	}
	set_technology = {
		early_submarine = 1
		basic_submarine = 1
		early_destroyer = 1
		basic_destroyer = 1
		early_light_cruiser = 1
		basic_light_cruiser = 1
		early_heavy_cruiser = 1
		basic_heavy_cruiser = 1
		early_battleship = 1
		basic_battleship = 1
		early_battlecruiser = 1
		transport = 1
	}
	set_naval_oob = "GER_1936_naval"
}
if = {
	limit = {
		has_dlc = "Man the Guns"
	}
	set_technology = {
		early_ship_hull_light = 1
		basic_ship_hull_light = 1
		early_ship_hull_cruiser = 1
		basic_ship_hull_cruiser = 1
		early_ship_hull_heavy = 1
		basic_ship_hull_heavy = 1
		panzerschiffe = 1
		pre_dreadnoughts = 1
		early_ship_hull_submarine = 1
		basic_ship_hull_submarine = 1
		mtg_transport = 1
		basic_torpedo = 1
		improved_ship_torpedo_launcher = 1
		basic_battery = 1
		basic_light_battery = 1
		basic_medium_battery = 1
		basic_heavy_battery = 1
		basic_secondary_battery = 1
		improved_secondary_battery = 1
		basic_depth_charges = 1
		sonar = 1
		basic_cruiser_armor_scheme = 1
	}
	set_naval_oob = "GER_1936_naval_mtg"
}
if = {
	limit = {
		has_dlc = "La Resistance"
	}
	set_technology = {
		armored_car1 = 1
	}
}

set_variable = { var = ger_gateway_to_europe_influence value = 0 }
set_country_flag=fuel_system_enabled
add_timed_idea = {
    idea = GER_mefo_bills_1
    days = 731#1369
}
set_research_slots = 4
set_convoys = 600
add_equipment_to_stockpile = {
         type = artillery_equipment_1
         amount = 229
         producer = GER
}
add_equipment_to_stockpile = {
         type = infantry_equipment_1
         amount = 16819
         producer = GER
}

add_equipment_to_stockpile = {
         type = motorized_equipment_1
         amount = 752
         producer = GER
}
add_equipment_to_stockpile = {
         type = support_equipment_1
         amount = 591
         producer = GER
}
add_equipment_to_stockpile = {
         type = light_tank_equipment_1
         amount = 720
         producer = GER
}
add_equipment_to_stockpile = {
         type = fighter_equipment_0
         amount = 280
         producer = GER
}
add_equipment_to_stockpile = {
         type = transport_plane_equipment_1
         amount = 10
         producer = GER
}
add_equipment_to_stockpile = {
         type = nav_bomber_equipment_1
         amount = 72
         producer = GER
}
add_equipment_to_stockpile = {
         type = tac_bomber_equipment_1
         amount = 480
         producer = GER
}
add_equipment_to_stockpile = {
         type = CAS_equipment_1
         amount = 80
         producer = GER
}
set_stability = 0.75 
set_war_support = 0.4

#Trade

set_politics = {
	ruling_party = fascism
	last_election = "1933.3.5"
	election_frequency = 48
	elections_allowed = no
}
set_popularities = {
	democratic = 20
	fascism = 60
	communism = 20
}
create_faction = Axis
add_to_faction = GER
add_to_faction = ROM
add_to_faction = ITA
add_to_faction = HUN
add_to_faction = BUL
add_to_faction = SPR


add_ideas = {
	sour_loser
	general_staff
	export_focus
	limited_conscription
	partial_economic_mobilisation
	
}
#add_ideas = GER_mefo_bills_1

#activate_mission = GER_mefo_bills_mission

create_country_leader = {
	name = "Adolf Hitler"
	desc = "POLITICS_ADOLF_HITLER_DESC"
	picture = "Portrait_Germany_Adolf_Hitler.dds"
	expire = "1965.1.1"
	ideology = nazism
	traits = {
		dictator
	}
}

add_namespace = {
	name = "ger_unit_leader"
	type = unit_leader
}

create_field_marshal = {
	name = "Gerd von Rundstedt"
	picture = "Portrait_Germany_Gerd_von_Rundstedt.dds"
	traits = { defensive_doctrine offensive_doctrine infantry_leader organizer  }
	skill = 6
	attack_skill = 5
	defense_skill = 4
	planning_skill = 3
	logistics_skill = 4
	id = 1
}

create_field_marshal = {
	name = "Günther von Kluge"
	picture = "Portrait_Germany_Gunther_von_Kluge.dds"
	traits = {  offensive_doctrine panzer_leader }
	skill = 4
	id = 2
	attack_skill = 3
	defense_skill = 2
	planning_skill = 2
	logistics_skill = 3
}

create_corps_commander = {
	name = "Friedrich Paulus"
	picture = "Portrait_Germany_Friedrich_Paulus.dds"
	traits = { commando trait_cautious infantry_leader urban_assault_specialist }
	skill = 4
	id = 3
	attack_skill = 5
	defense_skill = 3
	planning_skill = 3
	logistics_skill = 2
}

create_corps_commander = {
	name = "Erwin Rommel"
	picture = "Portrait_Germany_Erwin_Rommel.dds"
	traits = { commando panzer_leader panzer_expert desert_fox trickster trait_engineer }
	skill = 5
	id = 4
	attack_skill = 6
	defense_skill = 2
	planning_skill = 4
	logistics_skill = 4
}


create_field_marshal = {
	name = "Wilhelm Keitel"
	picture = "Portrait_Germany_Wilhelm_Keitel.dds"
	traits = { infantry_leader cavalry_leader organizer trickster ranger swamp_fox }
	skill = 6
	attack_skill = 5
	defense_skill = 6
	planning_skill = 3
	logistics_skill = 4
}

create_corps_commander = {
	name = "Erich von Manstein"
	picture = "Portrait_Germany_Erich_von_Manstein.dds"
	traits = {  organizer panzer_leader panzer_expert brilliant_strategist trickster trait_engineer ranger  }
	skill = 6
	id = 5
	attack_skill = 6
	defense_skill = 5
	planning_skill = 5
	logistics_skill = 5
}

create_corps_commander = {
	name = "Heinz Guderian"
	picture = "Portrait_Germany_Heinz_Guderian.dds"
	traits = { trickster brilliant_strategist panzer_leader panzer_expert trickster ranger organizer }
	skill = 6
	id = 6
	attack_skill = 6
	defense_skill = 4
	planning_skill = 4
	logistics_skill = 5
}

create_corps_commander = {
	name = "Wilhelm List"
	picture = "Portrait_Germany_Wilhelm_List.dds"
	traits = { infantry_leader }
	skill = 3
	id = 7
	attack_skill = 2
	defense_skill = 4
	planning_skill = 1
	logistics_skill = 2
}

create_corps_commander = {
	name = "Ewald von Kleist"
	desc = ""
	picture = "Portrait_Germany_Ewald_von_Kleist.dds"
	traits = { armor_officer trait_cautious cavalry_leader }
	skill = 2
	id = 8
	attack_skill = 2
	defense_skill = 1
	planning_skill = 2
	logistics_skill = 2
}

create_corps_commander = {
	name = "Fedor von Bock"
	picture = "Portrait_Germany_Fedor_von_Bock.dds"
	traits = { harsh_leader infantry_leader naval_invader trickster }
	skill = 6
	id = 9
	attack_skill = 5
	defense_skill = 5
	planning_skill = 4
	logistics_skill = 2
}

create_field_marshal = {
	name = "Walter Model"
	picture = "Portrait_Germany_Walter_Model.dds"
	traits = { defensive_doctrine organizer commando }
	skill = 4
	id = 10
	attack_skill = 2
	defense_skill = 6
	planning_skill = 2
	logistics_skill = 2
}

create_corps_commander = {
	name = "Maximilian von Weichs"
	picture = "Portrait_Germany_Maximilian_von_Weichs.dds"
	traits = { infantry_leader }
	skill = 4
	id = 11
	attack_skill = 4
	defense_skill = 3
	planning_skill = 3
	logistics_skill = 4
}

create_corps_commander = {
	name = "Wilhelm Ritter von Leeb"
	picture = "Portrait_Germany_Wilhelm_Ritter_von_Leeb.dds"
	traits = { old_guard infantry_officer infantry_leader  }
	skill = 4
	id = 13
	attack_skill = 4
	defense_skill = 5
	planning_skill = 1
	logistics_skill = 2
}

create_corps_commander = {
	name = "Georg-Hans Reinhardt"
	picture = "Portrait_Germany_Georg_von_Reinhardt.dds"
	traits = { trait_cautious armor_officer }
	skill = 3
	id = 14
	attack_skill = 1
	defense_skill = 2
	planning_skill = 4
	logistics_skill = 3
}

create_corps_commander = {
	name = "Walter Krüger"
	picture = "Portrait_Germany_Walter_Kruger.dds"
	traits = { armor_officer trait_reckless politically_connected}
	skill = 3
	id = 15
	attack_skill = 3
	defense_skill = 3
	planning_skill = 2
	logistics_skill = 3
}

create_corps_commander = {
	name = "Kurt Student"
	picture = "Portrait_Germany_Kurt_Student.dds"
	traits = { commando infantry_leader }
	skill = 5
	id = 16
	attack_skill = 5
	defense_skill = 4
	planning_skill = 4
	logistics_skill = 3
}

create_corps_commander = {
	name = "Erwin von Witzleben"
	picture = "Portrait_Germany_Erwin_von_Witzleben.dds"
	traits = { infantry_officer }
	skill = 4
	id = 17
	attack_skill = 4
	defense_skill = 3
	planning_skill = 2
	logistics_skill = 4
}

create_corps_commander = {
	name = "Hermann Hoth"
	picture = "Portrait_Germany_Herman_Hoth.dds"
	traits = { trait_reckless armor_officer }
	skill = 3
	id = 18
	attack_skill = 4
	defense_skill = 2
	planning_skill = 3
	logistics_skill = 3
}

create_corps_commander = {
	name = "Johannes Blaskowitz"
	picture = "Portrait_Germany_Johannes_Blaskowitz.dds"
	traits = {  skilled_staffer  }
	skill = 2
	id = 19
	attack_skill = 1
	defense_skill = 1
	planning_skill = 1
	logistics_skill = 1
}

create_corps_commander = {
	name = "Paul Hausser"
	picture = "Portrait_Germany_Paul_Hausser.dds"
	traits = {  armor_officer politically_connected panzer_leader }
	skill = 4
	id = 20
	attack_skill = 3
	defense_skill = 3
	planning_skill = 2
	logistics_skill = 3
}

create_corps_commander = {
	name = "Friedrich Schulz"
	picture = "Portrait_Germany_Friedrich_Schulz.dds"
	traits = { skilled_staffer }
	skill = 2
	id = 21
	attack_skill = 1
	defense_skill = 1
	planning_skill = 1
	logistics_skill = 1
}

create_corps_commander = {
	name = "Georg von Küchler"
	picture = "Portrait_Germany_Georg_von_Kuchler.dds"
	traits = {  skilled_staffer }
	skill = 2
	id = 22
	attack_skill = 1
	defense_skill = 1
	planning_skill = 1
	logistics_skill = 1
}

create_corps_commander = {
	name = "Alfred Jodl"
	picture = "Portrait_Germany_Alfred_Jodl.dds"
	traits = { politically_connected infantry_leader cavalry_leader }
	skill = 4
	id = 23
	attack_skill = 3
	defense_skill = 7
	planning_skill = 3
	logistics_skill = 3
}

create_corps_commander = {
	name = "Sepp Dietrich"
	picture = "Portrait_Germany_Josef_Dietrich.dds"
	traits = { armor_officer politically_connected brilliant_strategist trait_reckless }
	skill = 4
	id = 24
	attack_skill = 2
	defense_skill = 3
	planning_skill = 4
	logistics_skill = 4
}

create_corps_commander = {
	name = "Hasso von Manteuffel"
		picture = "Portrait_Germany_Hasso_von_Manteuffel.dds"
	traits = { trickster panzer_leader trait_engineer brilliant_strategist ranger }
	skill = 5
	id = 25
	attack_skill = 5
	defense_skill = 4
	planning_skill = 4
	logistics_skill = 5
}

create_corps_commander = {
	name = "Albert Kesselring"
	picture = "Portrait_Germany_Albert_Kesselring.dds"
	traits = { brilliant_strategist infantry_leader }
	skill = 5
	id = 32
	attack_skill = 4
	defense_skill = 5
	planning_skill = 3
	logistics_skill = 4
}

create_corps_commander = {
	name = "Gotthard Heinrici"
	picture = "Portrait_Germany_Gotthard_Heinrici.dds"
	traits = { trait_engineer infantry_officer trait_cautious }
	skill = 3

	id = 33
	attack_skill = 3
	defense_skill = 1
	planning_skill = 3
	logistics_skill = 3
}

create_corps_commander = {
	name = "Ernst-Eberhard Hell"
	picture = "Portrait_Germany_Ernst-Eberhard_Hell.dds"
	traits = { winter_specialist trait_engineer war_hero }
	skill = 3
	id = 34
	attack_skill = 3
	defense_skill = 2
	planning_skill = 3
	logistics_skill = 2
}

create_corps_commander = {
	name = "Felix Steiner"
	gfx = "GFX_portrait_ger_felix_steiner"
	traits = {  cavalry_leader trait_engineer }
	skill = 4
	id = 35
	attack_skill = 3
	defense_skill = 3
	planning_skill = 3
	logistics_skill = 3
}

create_navy_leader = {
	name = "Karl Dönitz"
	picture = "Portrait_Germany_Karl_Donitz.dds"
	traits = { seawolf }
	skill = 5
	id = 26
	attack_skill = 6
	defense_skill = 2
	maneuvering_skill = 3
	coordination_skill = 7
}

create_navy_leader = {
	name = "Erich Raeder"
		picture = "Portrait_Germany_Erich_Raeder.dds"
	traits = { naval_lineage battleship_adherent }
	skill = 5
	id = 27
	attack_skill = 5
	defense_skill = 4
	maneuvering_skill = 5
	coordination_skill = 6
}

create_navy_leader = {
	name = ".FazeHeart"
		picture = "Portrait_Germany_FazeHeart.dds"
	traits = { fleet_protector destroyer_leader }
	skill = 3
	attack_skill = 2
	defense_skill = 2
	maneuvering_skill = 9
	coordination_skill = 1
}

create_navy_leader = {
	name = "Alfred Saalwächter"
		picture = "Portrait_Germany_Alfred_Saalwachter.dds"
	traits = { superior_tactician}
	skill = 4
	id = 28
	attack_skill = 6
	defense_skill = 2
	maneuvering_skill = 10
	coordination_skill = 4
}

create_navy_leader = {
	name = "Hermann Boehm"
		picture = "Portrait_Germany_Hermann_Boehm.dds"
	traits = { craven superior_tactician }
	skill = 4
	id = 29
	attack_skill = 3
	defense_skill = 4
	maneuvering_skill = 4
	coordination_skill = 2
}

create_navy_leader = {
	name = "Wilhelm Marschall"
		picture = "Portrait_Germany_Wilhelm_Marschall.dds"
	traits = { }
	skill = 4
	id = 30
	attack_skill = 6
	defense_skill = 2
	maneuvering_skill = 6
	coordination_skill = 4
}

create_navy_leader = {
	name = "Günther Lütjens"
		picture = "Portrait_Germany_Gunter_Lutjens.dds"
	traits = { gentlemanly superior_tactician fly_swatter blockade_runner }
	skill = 5
	id = 31
	attack_skill = 4
	defense_skill = 1
	maneuvering_skill = 4
	coordination_skill = 6
}

if = {
	limit = {
		has_dlc = "La Resistance"
	}
	create_operative_leader = {
		name = "Otto Skorzeny"
		GFX = GFX_portrait_otto_skorenzy
		traits = { operative_commando }
		bypass_recruitment = no
		available_to_spy_master = yes
		nationalities = { GER }
	}

	create_operative_leader = {
		name = "Nikolaus Ritter"
		GFX = GFX_portrait_nikolaus_ritter
		traits = { operative_safe_cracker }
		bypass_recruitment = no
		available_to_spy_master = yes
		nationalities = { GER }
	}
	create_operative_leader = {
		name = "Eleysa Bazna"
		GFX = GFX_portrait_eleysa_bazna
		traits = { operative_infiltrator }
		bypass_recruitment = no
		available_to_spy_master = yes
		nationalities = { GER }
	}
}

if = {
	limit = {
		not = { has_dlc = "Man the Guns" }
	}
	### Ship Variants ###
	## 1936 Start ##
	# Light Cruisers #
	create_equipment_variant = {
		name = "Königsberg Class"
		type = light_cruiser_1
		parent_version = 0
		upgrades = {
			ship_reliability_upgrade = 2
			ship_engine_upgrade = 2
			ship_gun_upgrade = 2
			ship_anti_air_upgrade = 2
		}
		obsolete = yes
	}
	# Heavy Cruisers #
	create_equipment_variant = {
		name = "Deutschland Class"
		type = heavy_cruiser_1
		parent_version = 0
		upgrades = {
			ship_reliability_upgrade = 1
			ship_engine_upgrade = 1
			ship_armor_upgrade = 1
			ship_gun_upgrade = 2
		}
	}
}
if = {
	limit = { has_dlc = "Man the Guns" }
	create_equipment_variant = {
		name = "Deutschland Class"
		type = ship_hull_cruiser_panzerschiff
		name_group = GER_CA_HISTORICAL
		parent_version = 0
		modules = {
        	fixed_ship_anti_air_slot = ship_anti_air_1
			fixed_ship_battery_slot = ship_heavy_battery_2
			fixed_ship_secondaries_slot = ship_secondaries_1
			fixed_ship_armor_slot = ship_armor_cruiser_1
			fixed_ship_fire_control_system_slot = ship_fire_control_system_0
			fixed_ship_engine_slot = cruiser_ship_engine_1
			rear_1_custom_slot = ship_torpedo_1
			mid_1_custom_slot = ship_airplane_launcher_1
    	}
	}
	create_equipment_variant = {
		name = "Type 24 Class"
		type = ship_hull_light_1
		name_group = GER_TB_HISTORICAL
		parent_version = 0
		modules = {
			fixed_ship_battery_slot = ship_light_battery_2
			fixed_ship_anti_air_slot = empty
			fixed_ship_fire_control_system_slot = ship_fire_control_system_0
			fixed_ship_radar_slot = empty
			fixed_ship_engine_slot = light_ship_engine_1
			fixed_ship_torpedo_slot = ship_torpedo_2
			rear_1_custom_slot = ship_torpedo_2
		}
		obsolete = yes
	}
	create_equipment_variant = {
		name = "Zerstörer 1934 Class"
		type = ship_hull_light_2
		name_group = GER_DD_HISTORICAL
		parent_version = 0
		modules = {
			fixed_ship_battery_slot = ship_light_battery_2
			fixed_ship_anti_air_slot = ship_anti_air_1
			fixed_ship_fire_control_system_slot = ship_fire_control_system_0
			fixed_ship_radar_slot = empty
			fixed_ship_engine_slot = light_ship_engine_2
			fixed_ship_torpedo_slot = ship_torpedo_1
			mid_1_custom_slot = ship_torpedo_1
			rear_1_custom_slot = ship_torpedo_2
		}
		obsolete = yes
	}
	create_equipment_variant = {
		name = "Zerstörer 1934A Class"
		type = ship_hull_light_2
		name_group = GER_DD_HISTORICAL
		parent_version = 0
		modules = {
			fixed_ship_battery_slot = ship_light_battery_2
			fixed_ship_anti_air_slot = ship_anti_air_1
			fixed_ship_fire_control_system_slot = ship_fire_control_system_0
			fixed_ship_radar_slot = empty
			fixed_ship_engine_slot = light_ship_engine_2
			fixed_ship_torpedo_slot = ship_torpedo_2
			mid_1_custom_slot = ship_torpedo_2
			rear_1_custom_slot = ship_depth_charge_1
		}
	}
	create_equipment_variant = {
		name = "Type II Class"
		type = ship_hull_submarine_1
		name_group = GER_SS_HISTORICAL
		parent_version = 0
		modules = {
			fixed_ship_torpedo_slot = ship_torpedo_sub_1
			fixed_ship_engine_slot = sub_ship_engine_1
			rear_1_custom_slot = empty
		}
		obsolete = yes
	}
	create_equipment_variant = {
		name = "Type VII Class"
		type = ship_hull_submarine_2
		name_group = GER_SS_HISTORICAL
		parent_version = 0
		modules = {
			fixed_ship_torpedo_slot = ship_torpedo_sub_2
			fixed_ship_engine_slot = sub_ship_engine_1
			rear_1_custom_slot = empty
		}
	}
	create_equipment_variant = {
		name = "Königsberg Class"
		type = ship_hull_cruiser_1
		name_group = GER_CL_HISTORICAL
		parent_version = 0
		modules = {
			fixed_ship_battery_slot = ship_light_medium_battery_1
			fixed_ship_anti_air_slot = ship_anti_air_1
			fixed_ship_fire_control_system_slot = ship_fire_control_system_0
			fixed_ship_radar_slot = empty
			fixed_ship_engine_slot = cruiser_ship_engine_1
			fixed_ship_armor_slot = ship_armor_cruiser_1
			mid_1_custom_slot = ship_torpedo_1
			mid_2_custom_slot = ship_light_medium_battery_1
			rear_1_custom_slot = empty
		}
	}
	create_equipment_variant = {
		name = "Königsberg Class Refit"
		type = ship_hull_cruiser_1
		name_group = GER_CL_HISTORICAL
		parent_version = 0
		modules = {
			fixed_ship_battery_slot = ship_light_medium_battery_1
			fixed_ship_anti_air_slot = ship_anti_air_2
			fixed_ship_fire_control_system_slot = ship_fire_control_system_0
			fixed_ship_radar_slot = empty
			fixed_ship_engine_slot = cruiser_ship_engine_1
			fixed_ship_armor_slot = ship_armor_cruiser_1
			fixed_ship_secondaries_slot = ship_secondaries_2
			mid_1_custom_slot = ship_secondaries_2
			mid_2_custom_slot = ship_light_medium_battery_1
			rear_1_custom_slot = ship_light_medium_battery_2
		}
	}
	create_equipment_variant = {
		name = "Leipzig Class"
		type = ship_hull_cruiser_2
		name_group = GER_CL_HISTORICAL
		parent_version = 0
		modules = {
			fixed_ship_battery_slot = ship_light_medium_battery_1
			fixed_ship_anti_air_slot = ship_anti_air_1
			fixed_ship_fire_control_system_slot = ship_fire_control_system_0
			fixed_ship_radar_slot = empty
			fixed_ship_engine_slot = cruiser_ship_engine_2
			fixed_ship_armor_slot = ship_armor_cruiser_1
			front_1_custom_slot = ship_light_medium_battery_1
			mid_1_custom_slot = ship_torpedo_1
			mid_2_custom_slot = ship_anti_air_1
			rear_1_custom_slot = ship_airplane_launcher_1
		}
	}
	create_equipment_variant = {
		name = "Leipzig Class Refit"
		type = ship_hull_cruiser_2
		name_group = GER_CL_HISTORICAL
		parent_version = 0
		modules = {
			fixed_ship_battery_slot = ship_light_medium_battery_1
			fixed_ship_anti_air_slot = ship_anti_air_2
			fixed_ship_fire_control_system_slot = ship_fire_control_system_0
			fixed_ship_radar_slot = empty
			fixed_ship_engine_slot = cruiser_ship_engine_2
			fixed_ship_armor_slot = ship_armor_cruiser_1
			fixed_ship_secondaries_slot = ship_secondaries_2
			front_1_custom_slot = ship_light_medium_battery_1
			mid_1_custom_slot = ship_secondaries_2
			mid_2_custom_slot = ship_secondaries_2
			rear_1_custom_slot = ship_light_medium_battery_2
		}
	}
	create_equipment_variant = {
		name = "Admiral Hipper Class"
		type = ship_hull_cruiser_2
		name_group = GER_CA_HISTORICAL
		parent_version = 0
		modules = {
			fixed_ship_battery_slot = ship_medium_battery_2
			fixed_ship_anti_air_slot = ship_anti_air_1
			fixed_ship_fire_control_system_slot = ship_fire_control_system_0
			fixed_ship_radar_slot = empty
			fixed_ship_engine_slot = cruiser_ship_engine_2
			fixed_ship_armor_slot = ship_armor_cruiser_2
			front_1_custom_slot = ship_medium_battery_2
			mid_1_custom_slot = ship_torpedo_1
			mid_2_custom_slot = ship_anti_air_1
			rear_1_custom_slot = ship_airplane_launcher_1
		}
	}
	create_equipment_variant = {
		name = "Admiral Hipper Class Refit"
		type = ship_hull_cruiser_2
		name_group = GER_CA_HISTORICAL
		parent_version = 0
		modules = {
			fixed_ship_battery_slot = ship_medium_battery_2
			fixed_ship_anti_air_slot = ship_anti_air_2
			fixed_ship_fire_control_system_slot = ship_fire_control_system_0
			fixed_ship_radar_slot = empty
			fixed_ship_engine_slot = cruiser_ship_engine_2
			fixed_ship_armor_slot = ship_armor_cruiser_2
			fixed_ship_secondaries_slot = ship_secondaries_2
			front_1_custom_slot = ship_medium_battery_2
			mid_1_custom_slot = ship_secondaries_2
			mid_2_custom_slot = ship_secondaries_2
			rear_1_custom_slot = ship_light_medium_battery_2
		}
	}
	create_equipment_variant = {
		name = "Scharnhorst Class"
		type = ship_hull_heavy_2
		name_group = GER_BB_HISTORICAL
		parent_version = 0
		modules = {
			fixed_ship_battery_slot = ship_heavy_battery_2
			fixed_ship_anti_air_slot = ship_anti_air_1
			fixed_ship_fire_control_system_slot = ship_fire_control_system_0
			fixed_ship_radar_slot = empty
			fixed_ship_engine_slot = heavy_ship_engine_2
			fixed_ship_secondaries_slot = ship_secondaries_1
			fixed_ship_armor_slot = ship_armor_bb_1
			front_1_custom_slot = empty
			mid_1_custom_slot = ship_anti_air_1
			mid_2_custom_slot = ship_secondaries_1
			rear_1_custom_slot = ship_heavy_battery_2
		}
	}
	create_equipment_variant = {
		name = "Scharnhorst Class Refit"
		type = ship_hull_heavy_2
		name_group = GER_BB_HISTORICAL
		parent_version = 0
		modules = {
			fixed_ship_battery_slot = ship_heavy_battery_2
			fixed_ship_anti_air_slot = ship_anti_air_2
			fixed_ship_fire_control_system_slot = ship_fire_control_system_0
			fixed_ship_radar_slot = empty
			fixed_ship_engine_slot = heavy_ship_engine_2
			fixed_ship_secondaries_slot = ship_secondaries_2
			fixed_ship_armor_slot = ship_armor_bb_1
			front_1_custom_slot = ship_heavy_battery_2
			mid_1_custom_slot = ship_anti_air_2
			mid_2_custom_slot = ship_anti_air_2
			rear_1_custom_slot = ship_heavy_battery_2
		}
	}
	create_equipment_variant = {
		name = "Deutschland Class"
		type = ship_hull_pre_dreadnought
		name_group = GER_BB_HISTORICAL
		parent_version = 0
		modules = {
			fixed_ship_battery_slot = ship_heavy_battery_1
			fixed_ship_anti_air_slot = ship_anti_air_1
			fixed_ship_fire_control_system_slot = ship_fire_control_system_0
			fixed_ship_radar_slot = empty
			fixed_ship_engine_slot = heavy_ship_engine_1
			fixed_ship_secondaries_slot = ship_secondaries_1
			fixed_ship_armor_slot = ship_armor_bb_1
			front_1_custom_slot = ship_anti_air_1
			mid_1_custom_slot = empty
			rear_1_custom_slot = empty
		}
		obsolete = yes
	}
}

create_equipment_variant = {
	name = "Ju 86"
	type = tac_bomber_equipment_0
	upgrades = {
		plane_tac_bomb_upgrade = 5
		plane_range_upgrade = 5
		plane_engine_upgrade = 5
		plane_reliability_upgrade = 10
	}
	obsolete = yes
}
create_equipment_variant = {
	name = "Bf 109 A"
	type = fighter_equipment_1
	upgrades = {
		plane_range_upgrade = 2
		plane_engine_upgrade = 0
		plane_reliability_upgrade = 2
	}
	obsolete = no
}
create_equipment_variant = {
	name = "Do 17"
	type = tac_bomber_equipment_0
	upgrades = {
		plane_tac_bomb_upgrade = 5
		plane_range_upgrade = 1
		plane_engine_upgrade = 1
		plane_reliability_upgrade = 5
	}
	obsolete = yes
}