﻿capital = 141	

set_research_slots = 0

add_ideas = {
	neutrality_idea
	neutral_idea
}
set_stability = 0.9
set_war_support = 0.1

set_technology = {
}

set_politics = {
	ruling_party = democratic
	last_election = "1932.9.18"
	election_frequency = 48
	elections_allowed = yes
}
set_popularities = {
	democratic = 75
	neutrality = 14
	communism = 8
	fascism = 3
}

set_convoys = 1
set_stability = 0.9




create_country_leader = {
	name = "Per Albin Hansson"
	desc = "POLITICS_PER_ALBIN_HANSSON_DESC"
	picture = "Portrait_Sweden_Per_Albin_Hansson.dds"
	expire = "1965.1.1"
	ideology = socialism
	traits = {
		#
	}
}
