version="1.9.1"
tags={
	"Balance"
}
name="RM Mod"
replace_path="history/countries"
replace_path="history/states"
replace_path="history/units"
replace_path="common/ideas"
replace_path="common/ai_focuses"
replace_path="common/ai_strategy"
replace_path="common/ai_equipment"
replace_path="common/ai_peace"
replace_path="common/ai_strategy_plans"
replace_path="common/ai_templates"
replace_path="common/bookmarks"
replace_path="common/countries"
replace_path="common/decisions"
replace_path="common/decisions/categories"
replace_path="common/national_focus"
replace_path="common/units/names_divisions"
replace_path="common/units/names_ships"
replace_path="gfx/loadingscreens"
replace_path="events"
picture="thumbnail.png"
supported_version="1.9.*"
path="C:/Users/Bilgisayar/Documents/Paradox Interactive/Hearts of Iron IV/mod/rmmod"
remote_file_id="2036137416"