strategic_region={
	id=120
	name="STRATEGICREGION_120"
	provinces={
		868 1352 1658 1683 1736 1738 1747 1752 1753 1767 1809 1815 1827 1836 1851 1854 1857 1870 1875 3613 3708 3719 3750 3855 3869 4586 4610 4723 4740 4741 4749 4757 4759 4760 4772 4794 4811 4814 4820 4830 4838 4839 4857 4860 4863 4871 4880 6722 6742 6887 7684 7688 7745 7760 7771 7779 7780 7814 7834 7840 7852 7862 7877 7880 7883 7888 7892 7999 9792 9802 10340 10532 10535 10569 10587 10588 10593 10595 10606 10624 10640 10676 10685 10706 10709 10711 11712 11772 12024 12513 12516 12561 12566 12570 12572 12585 12586 12620 12627 12633 12642 12651 12667 12676 12685 
	}
}
