strategic_region={
	id=124
	name="STRATEGICREGION_124"
	provinces={
		153 1887 1937 1944 1981 1997 2007 2023 2052 2079 2085 4526 4892 4942 4969 5000 5026 5051 5056 5088 5120 5317 7915 7936 7968 7991 7993 8024 8047 8050 8056 8075 8080 8113 8252 10494 10736 10747 10767 10790 10792 10823 10846 10849 10855 10864 10879 10888 10912 11020 12703 12729 12770 12772 12790 12798 12825 12845 12872 
	}
}
