strategic_region={
	id=148
	name="STRATEGICREGION_148"
	provinces={
		664 675 681 725 739 753 837 855 957 1267 1325 1343 1397 1504 1724 1730 1739 1742 1755 1772 1802 1807 1842 1845 3664 3695 3723 3739 3753 3756 3787 3811 3963 3977 4246 4290 4404 4701 4725 4731 4779 4805 4829 4841 4844 4847 6684 6686 6715 6774 6833 6838 6961 6989 7249 7266 7309 7616 7672 7691 7748 7754 7763 7785 7801 7851 7868 7871 9589 9604 9639 9641 9659 9733 9749 9762 9895 9926 10466 10571 10577 10590 10655 10678 10722 11575 11624 11626 11629 11643 11719 11745 11750 11765 11777 11879 11904 12136 12189 12192 12261 12263 12543 12559 12569 12591 12638 12654 12657 12660 12678 
	}
}
