focus_tree = {
	id = italian_focus

	country = {
		factor = 0
		
		modifier = {
			add = 10
			tag = ITA
		}
	}
	
	default = no

	continuous_focus_position = { x = 50 y = 1200 }

	focus = {
		id = ITA_ethiopian_war_logistics
		icon = GFX_ITA_Veni_Vedi_Veci
		x = 0
		y = 0
		cost = 1
		ai_will_do = {
			factor = 10
		}

		available_if_capitulated = yes
		search_filters = { FOCUS_FILTER_INDUSTRY }

		bypass = {
			550 = { NOT = { is_owned_and_controlled_by = ITA } }
			# Need province based trigger for this to work
			#550 = {		
			#	NOT = { 
			#		free_building_slots = {
			#			building = infrastructure
			#			size > 1
			#		} 
			#	}
			#	NOT = { 
			#		free_building_slots = {
			#			building = naval_base
			#			size > 2
			#		} 
			#	}
			#}
			559 = { NOT = { is_owned_and_controlled_by = ITA } }
			# Need province based trigger for this to work
			#559 = {
			#	NOT = { 
			#		free_building_slots = {
			#			building = infrastructure
			#			size > 2
			#		} 
			#	}
			#	NOT = { 
			#		free_building_slots = {
			#			building = naval_base
			#			size > 3
			#		} 
			#	}
			#}
		}

		completion_reward = {
			if = { limit = { 550 = { is_owned_and_controlled_by = ITA } }
				550 = {
					add_building_construction = {
						type = infrastructure
						level = 2
						instant_build = yes
					}
				}
				550 = {
					add_building_construction = {
						type = naval_base
						level = 3
						province = 12766
						instant_build = yes
					}
				}
			}

			if = { limit = { 559 = { is_owned_and_controlled_by = ITA } }
				559 = {
						add_building_construction = {
							type = infrastructure
							level = 3
							instant_build = yes
						}
				}
      	559 = {
					add_building_construction = {
						type = naval_base
						level = 4
						province = 12941
						instant_build = yes
					}
				}
			}
			add_named_threat = { 
				threat = 1.5 
				name = ITA_ethiopian_war_logistics
			}
		}
	}

	focus = {
		id = ITA_industrial_effort
		icon = GFX_ITA_Il_Nord
		text = industrial_effort
		prerequisite = { focus = ITA_ethiopian_war_logistics }
		x = 0
		y = 1
		relative_position_id = ITA_ethiopian_war_logistics
		cost = 10
		ai_will_do = {
			factor = 1
		}

		available_if_capitulated = yes

		bypass = {
			custom_trigger_tooltip = {
				tooltip = construction_effort_tt
				NOT = {
					any_owned_state = {
						is_controlled_by = ROOT
						free_building_slots = {
							building = industrial_complex
							size > 2
							include_locked = yes
						}
					}
				}
			}
		}
		search_filters = { FOCUS_FILTER_INDUSTRY }

		completion_reward = {
			random_owned_controlled_state = {
				limit = {
					free_building_slots = {
						building = industrial_complex
						size > 1
						include_locked = yes
					}
					is_on_continent = europe
				}
				add_extra_state_shared_building_slots = 4
				add_building_construction = {
					type = industrial_complex
					level = 4
					instant_build = yes
				}
			}
			random_owned_controlled_state = {
				limit = {
					free_building_slots = {
						building = industrial_complex
						size > 1
						include_locked = yes
					}
					is_on_continent = europe
				}
				add_extra_state_shared_building_slots = 3
				add_building_construction = {
					type = industrial_complex
					level = 3
					instant_build = yes
				}
			}
			if = {
				limit = {
					NOT = {
						any_owned_state = {
							free_building_slots = {
								building = industrial_complex
								size > 1
								include_locked = yes
							}
							is_on_continent = europe
						}
					}
				}
				random_owned_controlled_state = {
					limit = {
						free_building_slots = {
							building = industrial_complex
							size > 1
							include_locked = yes
						}
					}
					add_extra_state_shared_building_slots = 2
					add_building_construction = {
						type = industrial_complex
						level = 2
						instant_build = yes
					}
				}
				random_owned_controlled_state = {
					limit = {
						free_building_slots = {
							building = industrial_complex
							size > 1
							include_locked = yes
						}
					}
					add_extra_state_shared_building_slots = 2
					add_building_construction = {
						type = industrial_complex
						level = 2
						instant_build = yes
					}
				}				
			}
		}
	}

	focus = {
		id = ITA_industrial_effort_2
		icon = GFX_ITA_Il_Mezzigiorno
		text = industrial_effort_2
		prerequisite = { focus = ITA_industrial_effort }
		x = 0
		y = 1
		relative_position_id = ITA_industrial_effort
		cost = 10
		ai_will_do = {
			factor = 1
		}

		available_if_capitulated = yes

		bypass = {
			custom_trigger_tooltip = {
				tooltip = production_effort_tt
				NOT = {
					any_owned_state = {
						is_controlled_by = ROOT
						free_building_slots = {
							building = arms_factory
							size > 2
							include_locked = yes
						}
					}
				}
			}
		}
		search_filters = { FOCUS_FILTER_INDUSTRY }

		completion_reward = {
			random_owned_controlled_state = {
				limit = {
					arms_factory > 0
					free_building_slots = {
						building = arms_factory
						size > 1
						include_locked = yes
					}
					is_on_continent = europe
				}
				add_extra_state_shared_building_slots = 2
				add_building_construction = {
					type = arms_factory
					level = 2
					instant_build = yes
				}
			}
			random_owned_controlled_state = {
				limit = {
					arms_factory > 0
					free_building_slots = {
						building = arms_factory
						size > 1
						include_locked = yes
					}
					is_on_continent = europe
				}
				add_extra_state_shared_building_slots = 2
				add_building_construction = {
					type = arms_factory
					level = 2
					instant_build = yes
				}
			}
			if = {
				limit = {
					NOT = {
						any_owned_state = {
							arms_factory > 0
							free_building_slots = {
								building = arms_factory
								size > 1
								include_locked = yes
							}
							is_on_continent = europe
						}
					}					
				}
				random_owned_controlled_state = {
					limit = {
						arms_factory > 0
						free_building_slots = {
							building = arms_factory
							size > 1
							include_locked = yes
						}
						is_on_continent = europe
					}
					add_extra_state_shared_building_slots = 2
					add_building_construction = {
						type = arms_factory
						level = 2
						instant_build = yes
					}
				}
				random_owned_controlled_state = {
					limit = {
						arms_factory > 0
						free_building_slots = {
							building = arms_factory
							size > 1
							include_locked = yes
						}
						is_on_continent = europe
					}
					add_extra_state_shared_building_slots = 2
					add_building_construction = {
						type = arms_factory
						level = 2
						instant_build = yes
					}
				}			
			}
			if = {
				limit = {
					NOT = {
						any_owned_state = {
							free_building_slots = {
								building = arms_factory
								size > 1
								include_locked = yes
							}
							is_on_continent = europe
						}
					}					
				}
				random_owned_controlled_state = {
					limit = {
						free_building_slots = {
							building = arms_factory
							size > 1
							include_locked = yes
						}
					}
					add_extra_state_shared_building_slots = 2
					add_building_construction = {
						type = arms_factory
						level = 2
						instant_build = yes
					}
				}
				random_owned_controlled_state = {
					limit = {
						free_building_slots = {
							building = arms_factory
							size > 1
							include_locked = yes
						}
					}
					add_extra_state_shared_building_slots = 2
					add_building_construction = {
						type = arms_factory
						level = 2
						instant_build = yes
					}
				}			
			}
		}
	}

	focus = {
		id = ITA_fortification_effort
		icon = GFX_goal_generic_construct_military
		prerequisite = { focus = ITA_industrial_effort_2 }
		x = -1
		y = 1
		relative_position_id = ITA_industrial_effort_2
		cost = 5
		ai_will_do = {
			factor = 1
		}	
		
		available = { 				
			NOT = {
				ITA = {
				has_full_control_of_state = 451
				has_full_control_of_state = 450
				has_full_control_of_state = 449
				has_full_control_of_state = 448
				}
			}
			}
		completion_reward = {

			# Dodecanese
							if = {
					limit = {
						any_country = {
							OR = {
								tag = ITA
								is_in_faction_with = ITA
							}
							has_full_control_of_state = 164
						}
					}
			164 = {
								set_building_level = {
						type = coastal_bunker
						level = 5
						province = {
							all_provinces = yes
	limit_to_coastal = yes
							level < 5
						}
					}
			}
			}
			# Sardinia
							if = {
					limit = {
						any_country = {
							OR = {
								tag = ITA
								is_in_faction_with = ITA
							}
							has_full_control_of_state = 114
						}
					}
			114 = {
								set_building_level = {
						type = coastal_bunker
						level = 2
						province = {
							all_provinces = yes
	limit_to_coastal = yes
							level < 2
						}
					}
				
			}
			}
			# Sicily
							if = {
					limit = {
						any_country = {
							OR = {
								tag = ITA
								is_in_faction_with = ITA
							}
							has_full_control_of_state = 115
						}
					}
			115 = {
												set_building_level = {
						type = coastal_bunker
						level = 2
						province = {
							all_provinces = yes
	limit_to_coastal = yes
							level < 2
						}
					}
			}
			}
							if = {
					limit = {
						any_country = {
							OR = {
								tag = ITA
								is_in_faction_with = ITA
							}
							has_full_control_of_state = 182
						}
					}
			182 = 	{
												set_building_level = {
						type = coastal_bunker
						level = 2
						province = {
							all_provinces = yes
	limit_to_coastal = yes
							level < 2
						}
					}
			}
			}
							if = {
					limit = {
						any_country = {
							OR = {
								tag = ITA
								is_in_faction_with = ITA
							}
							has_full_control_of_state = 1
						}
					}
			1 = { 
								set_building_level = {
						type = coastal_bunker
						level = 2
						province = {
							all_provinces = yes
	limit_to_coastal = yes
							level < 2
						}
					}
			}
			}
			
										if = {
					limit = {
						any_country = {
							OR = {
								tag = ITA
								is_in_faction_with = ITA
							}
							has_full_control_of_state = 183
						}
					}
			183 = 	{
												set_building_level = {
						type = coastal_bunker
						level = 2
						province = {
							all_provinces = yes
	limit_to_coastal = yes
							level < 2
						}
					}
			}
			}
			
													if = {
					limit = {
						any_country = {
							OR = {
								tag = ITA
								is_in_faction_with = ITA
							}
							has_full_control_of_state = 177
						}
					}
			177 = 	{
												set_building_level = {
						type = coastal_bunker
						level = 2
						province = {
							all_provinces = yes
	limit_to_coastal = yes
							level < 2
						}
					}
			}
			}
			
													if = {
					limit = {
						any_country = {
							OR = {
								tag = ITA
								is_in_faction_with = ITA
							}
							has_full_control_of_state = 116
						}
					}
			116 = 	{
												set_building_level = {
						type = coastal_bunker
						level = 2
						province = {
							all_provinces = yes
	limit_to_coastal = yes
							level < 2
						}
					}
			}
			}
			
		}
	}
	
	
	focus = {
		id = ITA_mediterranean_wall
		icon = GFX_goal_generic_construct_military
		prerequisite = { focus = ITA_fortification_effort }
		x = 0
		y = 1
		relative_position_id = ITA_fortification_effort
		cost = 10
		ai_will_do = {
			factor = 1
		}	
		
				available = { 				
			NOT = {
				ITA = {
				has_full_control_of_state = 451
				has_full_control_of_state = 450
				has_full_control_of_state = 449
				has_full_control_of_state = 448
				}
			}
			}
		
		completion_reward = {
			31 = {
								set_building_level = {
						type = coastal_bunker
						level = 1
						province = {
							all_provinces = yes
	limit_to_coastal = yes
							level < 1
						}
					}
			}
		22 = {
			set_building_level = {
						type = coastal_bunker
						level = 1
						province = {
							all_provinces = yes
	limit_to_coastal = yes
							level < 1
						}
					}
		}
		21 = {
												set_building_level = {
						type = coastal_bunker
						level = 1
						province = {
							all_provinces = yes
	limit_to_coastal = yes
							level < 1
						}
					}
		}
	158 = {
										set_building_level = {
						type = coastal_bunker
						level = 1
						province = {
							all_provinces = yes
limit_to_coastal = yes
							level < 1
						}
					}
			}
	162 = { 
										set_building_level = {
						type = coastal_bunker
						level = 1
						province = {
							all_provinces = yes
	limit_to_coastal = yes
							level < 1
						}
					}
		}
	2 = { 
									set_building_level = {
						type = coastal_bunker
						level = 1
						province = {
							all_provinces = yes
	limit_to_coastal = yes
							level < 1
						}
					}
	}
 
	117 = {
								set_building_level = {
						type = coastal_bunker
						level = 1
						province = {
							all_provinces = yes
	limit_to_coastal = yes
							level < 1
						}
					}
	}
	156 = { 
										set_building_level = {
						type = coastal_bunker
						level = 1
						province = {
							all_provinces = yes
	limit_to_coastal = yes
							level < 1
						}
					}
		}
		157 = { 
										set_building_level = {
						type = coastal_bunker
						level = 1
						province = {
							all_provinces = yes
	limit_to_coastal = yes
							level < 1
						}
					}
		}
		161 = { 
								set_building_level = {
						type = coastal_bunker
						level = 1
						province = {
							all_provinces = yes
	limit_to_coastal = yes
							level < 1
						}
					}
		}
		160 = { 
										set_building_level = {
						type = coastal_bunker
						level = 1
						province = {
							all_provinces = yes
	limit_to_coastal = yes
							level < 1
						}
					}
			}
		736 = {
											set_building_level = {
						type = coastal_bunker
						level = 1
						province = {
							all_provinces = yes
limit_to_coastal = yes
							level < 1
						}
					}
			}
	    103 = { 
										set_building_level = {
						type = coastal_bunker
						level = 1
						province = {
							all_provinces = yes
	limit_to_coastal = yes
							level < 1
						}
					}
		}
		105 = {
										set_building_level = {
						type = coastal_bunker
						level = 1
						province = {
							all_provinces = yes
	limit_to_coastal = yes
							level < 1
						}
					}
			}
		44 = { 
										set_building_level = {
						type = coastal_bunker
						level = 1
						province = {
							all_provinces = yes
	limit_to_coastal = yes
							level < 1
						}
					}
		}
		185 = { 
								set_building_level = {
						type = coastal_bunker
						level = 1
						province = {
							all_provinces = yes
	limit_to_coastal = yes
							level < 1
						}
					}
		}
		186 = { 
										set_building_level = {
						type = coastal_bunker
						level = 1
						province = {
							all_provinces = yes
	limit_to_coastal = yes
							level < 1
						}
					}
		}		
		47 = {
										set_building_level = {
						type = coastal_bunker
						level = 1
						province = {
							all_provinces = yes
	limit_to_coastal = yes
							level < 1
						}
					}
			}
		731 = {
								set_building_level = {
						type = coastal_bunker
						level = 1
						province = {
							all_provinces = yes
	limit_to_coastal = yes
							level < 1
						}
					}
			}
		184 = { 
										set_building_level = {
						type = coastal_bunker
						level = 1
						province = {
							all_provinces = yes
	limit_to_coastal = yes
							level < 1
						}
					}
				}
		187 = {
								set_building_level = {
						type = coastal_bunker
						level = 1
						province = {
							all_provinces = yes
	limit_to_coastal = yes
							level < 1
						}
					}
		
		}
		
		}
		}
		
		focus = {
		id = ITA_fort_milan
		icon = GFX_goal_generic_construct_military
		prerequisite = { focus = ITA_mediterranean_wall }
		x = 0
		y = 1
		relative_position_id = ITA_mediterranean_wall
		cost = 1
		ai_will_do = {
			factor = 1
		}	
		
				available = { 				
surrender_progress > 0.70 
controls_state = 159
date > 1941.6.1
			}
		
		completion_reward = {
			159 = {
								set_building_level = {
						type = bunker
						level = 10
						province = 3780
					}
		
		}
		}
		}
		

	focus = {
		id = ITA_extra_tech_slot
		icon = GFX_focus_research
		text = extra_tech_slot
		prerequisite = { focus = ITA_industrial_effort_2 }
		x = 1
		y = 1
		relative_position_id = ITA_industrial_effort_2
		cost = 10
		ai_will_do = {
			factor = 1
		}

		available_if_capitulated = yes
		search_filters = { FOCUS_FILTER_RESEARCH }

		completion_reward = {
			add_research_slot = 1
		}
	}

	focus = {
		id = ITA_italian_highways
		icon = GFX_goal_generic_construct_infrastructure
		text = ITA_italian_highways
		prerequisite = { focus = ITA_extra_tech_slot }
		x = 0
		y = 1
		relative_position_id = ITA_extra_tech_slot
		cost = 5
		ai_will_do = {
			factor = 1
		}	
		search_filters = { FOCUS_FILTER_INDUSTRY }

		completion_reward = {
			2 = {
				if = {
					limit = { is_controlled_by = ROOT }
					add_building_construction = {
						type = infrastructure
						level = 2
						instant_build = yes
					}
				}
			}
			117 = {
				if = {
					limit = { is_controlled_by = ROOT }
					add_building_construction = {
						type = infrastructure
						level = 1
						instant_build = yes
					}
				}
			}
			156 = {
				if = {
					limit = { is_controlled_by = ROOT }
					add_building_construction = {
						type = infrastructure
						level = 1
						instant_build = yes
					}
				}
			}
			157 = {
				if = {
					limit = { is_controlled_by = ROOT }
					add_building_construction = {
						type = infrastructure
						level = 1
						instant_build = yes
					}
				}
			}
			158 = {
				if = {
					limit = { is_controlled_by = ROOT }
					add_building_construction = {
						type = infrastructure
						level = 1
						instant_build = yes
					}
				}
			}
			159 = {
				if = {
					limit = { is_controlled_by = ROOT }
					add_building_construction = {
						type = infrastructure
						level = 1
						instant_build = yes
					}
				}
			}
			160 = {
				if = {
					limit = { is_controlled_by = ROOT }
					add_building_construction = {
						type = infrastructure
						level = 1
						instant_build = yes
					}
				}
			}
			161 = {
				if = {
					limit = { is_controlled_by = ROOT }
					add_building_construction = {
						type = infrastructure
						level = 1
						instant_build = yes
					}
				}
			}
			162 = {
				if = {
					limit = { is_controlled_by = ROOT }
					add_building_construction = {
						type = infrastructure
						level = 1
						instant_build = yes
					}
				}
			}									
			
		}
	}	
	
	
	focus = {
		id = ITA_prospect_for_oil
		icon = GFX_goal_generic_production
		text = ITA_prospect_for_oil
		prerequisite = { focus = ITA_italian_highways }
		available = {
			ITA = {
				controls_state = 449
			}
		}
		bypass = {
			449 = {
				has_state_flag = sirte_oil_developed
			}
		}
		
		x = 0
		y = 1
		relative_position_id = ITA_italian_highways
		cost = 5

		available_if_capitulated = yes
		search_filters = { FOCUS_FILTER_INDUSTRY }

		ai_will_do = {
			factor = 1
		}	
		completion_reward = {
			add_resource = {
				type = oil
				amount = 8
				state = 449
			}
		}
	}
	
	focus = {
		id = ITA_libyan_refineries
		icon = GFX_ITA_Italian_Libya
		text = ITA_libyan_refineries
		prerequisite = { focus = ITA_prospect_for_oil }
		available = {
			ITA = {
				controls_state = 449
			}
		}
		x = -1
		y = 1
		relative_position_id = ITA_prospect_for_oil
		cost = 10

		available_if_capitulated = yes
		search_filters = { FOCUS_FILTER_INDUSTRY }

		ai_will_do = {
			factor = 1
		}	
		completion_reward = {
			
			
				add_resource = {
				type = oil
				amount = 25
				state = 449
			}
			}	
		
		
	}	
	
	
	
	focus = {
		id = ITA_libyan_infrastructure
		icon = GFX_ITA_Italian_Libya
		text = ITA_libyan_infrastructure
		prerequisite = { focus = ITA_prospect_for_oil }
		x = 1
		y = 1
		relative_position_id = ITA_prospect_for_oil
		cost = 10
		ai_will_do = {
			factor = 1
		}

		available_if_capitulated = yes
		search_filters = { FOCUS_FILTER_INDUSTRY }

		completion_reward = {
			450  = {
				if = {
					limit = { is_controlled_by = ROOT }
					add_building_construction = {
						type = infrastructure
						level = 3
						instant_build = yes
					}
					add_building_construction = {
						type = anti_air_building
						level = 3
						instant_build = yes
					}
					set_building_level = {
						type = air_base
						level = 10
						instant_build = yes
					}
					add_building_construction = {
						type = naval_base
						level = 2
						province = 11954
						instant_build = yes
					}
				}
			}
			661 = {
				if = {
					limit = { is_controlled_by = ROOT }
					add_building_construction = {
						type = infrastructure
						level = 5
						instant_build = yes
					}
					add_building_construction = {
						type = anti_air_building
						level = 2
						instant_build = yes
					}
					set_building_level = {
						type = air_base
						level = 10
						instant_build = yes
					}
				}
			}
			663 = {
				if = {
					limit = { is_controlled_by = ROOT }
					add_building_construction = {
						type = infrastructure
						level = 5
						instant_build = yes
					}
					add_building_construction = {
						type = anti_air_building
						level = 2
						instant_build = yes
					}
					set_building_level = {
						type = air_base
						level = 10
						instant_build = yes
					}
				}
			}
			449 = {
				if = {
					limit = { is_controlled_by = ROOT }
					add_building_construction = {
						type = infrastructure
						level = 1
						instant_build = yes
					}
					add_building_construction = {
						type = anti_air_building
						level = 2
						instant_build = yes
					}
					set_building_level = {
						type = air_base
						level = 10
						instant_build = yes
					}
				}
			}
			451 = {
				if = {
					limit = { is_controlled_by = ROOT }
					add_building_construction = {
						type = infrastructure
						level = 1
						instant_build = yes
					}
					add_building_construction = {
						type = anti_air_building
						level = 2
						instant_build = yes
					}
					set_building_level = {
						type = air_base
						level = 10
						instant_build = yes
					}
				}
			}
			448 = {
				if = {
					limit = { is_controlled_by = ROOT }
					add_building_construction = {
						type = infrastructure
						level = 1
						instant_build = yes
					}
					add_building_construction = {
						type = anti_air_building
						level = 2
						instant_build = yes
					}
					set_building_level = {
						type = air_base
						level = 10
						instant_build = yes
					}
				}
			}
			
		}
	}		
    
	focus = {
	    id = ITA_transport_resc
		icon = GFX_goal_generic_oil_refinery
		prerequisite = { focus = ITA_libyan_infrastructure}
		prerequisite = { focus = ITA_libyan_refineries }
		available = {
			
			date>1941.6.1
			ITA = {
				AND = {controls_state = 449 controls_state = 2}
				
				
			}
		}
		x = 0
		y = 2
		relative_position_id = ITA_prospect_for_oil
		cost = 10
		continue_if_invalid=no
		cancel_if_invalid=no
		available_if_capitulated = yes

		ai_will_do = {
			factor = 1
		}	
		completion_reward = {
		add_resource = {
			type = oil
			amount = 15
			state = 39
		}
		add_resource = {
			type = oil
			amount = -15
			state = 449
		}
		add_resource = {
			type = oil
			amount = 18
			state = 39
		}
		add_resource = {
			type = oil
			amount = -18
			state = 449
		}
		}
	}	
	focus = {
	    id = ITA_transport_resc2
		icon = GFX_goal_generic_trade
		prerequisite = { focus = ITA_libyan_infrastructure}
		prerequisite = { focus = ITA_libyan_refineries }
		
		available = {
			
			date>1941.6.1
			ITA = {
				AND = {controls_state = 291 controls_state = 676 controls_state = 115 controls_state = 449}
				
				
			}
		}
		x = -2
		y = 2
		relative_position_id = ITA_prospect_for_oil
		cost = 10
		continue_if_invalid=no
		cancel_if_invalid=no
		available_if_capitulated = yes

		ai_will_do = {
			factor = 1
		}	
		completion_reward = {
		
		
		if={limit={676 = {
					has_state_flag = mosul_developed
				}}
		add_resource = {
			type = oil
			amount = 39
			state = 46
		}
		add_resource = {
			type = oil
			amount = -39
			state = 676
		}
		} else = {
			add_resource = {
				type = oil
				amount = 25
				state = 159
			}
			add_resource = {
				type = oil
				amount = -25
				state = 676
			}
		}
		add_resource = {
			type = oil
			amount = 27
			state = 159
		}
		add_resource = {
			type = oil
			amount = -27
			state = 291
		}
		add_resource = {
				type = oil
				amount = 25
				state = 2
			}
			add_resource = {
				type = oil
				amount = -25
				state = 676
			}
			add_resource = {
			type = oil
			amount = 28
			state = 2
		}
		add_resource = {
			type = oil
			amount = -28
			state = 291
		}
		}
	}
	focus = {
	    id = ITA_transport_resc3
		icon = GFX_focus_generic_rubber
		prerequisite = { focus = ITA_libyan_infrastructure}
		prerequisite = { focus = ITA_libyan_refineries }
		available = {
			
			date>1941.6.1
			ITA = {
				AND = {controls_state = 661 controls_state = 2}
				
				
			}
		}
		x = 2
		y = 2
		relative_position_id = ITA_prospect_for_oil
		cost = 10
		continue_if_invalid=no
		cancel_if_invalid=no
		available_if_capitulated = yes

		ai_will_do = {
			factor = 1
		}	
		completion_reward = {
		add_resource = {
			type = rubber
			amount = 10
			state = 161
		}
		
		add_resource = {
			type = rubber
			amount = -10
			state = 661
		}
		add_resource = {
			type = rubber
			amount = 15
			state = 161
		}
		
		add_resource = {
			type = rubber
			amount = -15
			state = 661
		}	
		}
		}
			focus = {
	    id = ITA_transport_resc6
		icon = GFX_focus_generic_rubber
		prerequisite = { focus = ITA_transport_resc3}
		available = {
			
			date>1941.6.1
			ITA = {
				AND = {controls_state = 661 controls_state = 2}
				
				
			}
		}
		x = 2
		y = 3
		relative_position_id = ITA_prospect_for_oil
		cost = 10
		continue_if_invalid=no
		cancel_if_invalid=no
		available_if_capitulated = yes

		ai_will_do = {
			factor = 1
		}	
		completion_reward = {
		add_resource = {
			type = rubber
			amount = 10
			state = 161
		}
		
		add_resource = {
			type = rubber
			amount = -10
			state = 661
		}
		add_resource = {
			type = rubber
			amount = 10
			state = 161
		}
		
		add_resource = {
			type = rubber
			amount = -10
			state = 661
		}	
		}
	}
	
	




	



		

	focus = {
		id = ITA_army_primacy
		icon = GFX_ITA_Alpini_Expansion
		x = 5
		y = 0
		cost = 10
		ai_will_do = {
			factor = 0.25
		}

		available_if_capitulated = yes
		search_filters = { FOCUS_FILTER_INDUSTRY FOCUS_FILTER_RESEARCH }

		completion_reward = {
			army_experience = 5
			random_owned_controlled_state = {
				limit = {
					arms_factory > 0
					free_building_slots = {
						building = arms_factory
						size > 0
						include_locked = yes
					}
				}
				add_extra_state_shared_building_slots = 1
				add_building_construction = {
					type = arms_factory
					level = 1
					instant_build = yes
				}
			}
			random_owned_controlled_state = {
				limit = {
					arms_factory > 0
					free_building_slots = {
						building = arms_factory
						size > 0
						include_locked = yes
					}
				}
				add_extra_state_shared_building_slots = 1
				add_building_construction = {
					type = arms_factory
					level = 1
					instant_build = yes
				}
			}

			if = {
				limit = {
					NOT = {
						any_owned_state = {
							arms_factory > 0
							free_building_slots = {
								building = arms_factory
								size > 0
								include_locked = yes
							}
						}
					}
				}
				random_owned_controlled_state = {
					limit = {
						free_building_slots = {
							building = arms_factory
							size > 0
							include_locked = yes
						}
					}
					add_extra_state_shared_building_slots = 1
					add_building_construction = {
						type = arms_factory
						level = 1
						instant_build = yes
					}
				}
				random_owned_controlled_state = {
					limit = {
						free_building_slots = {
							building = arms_factory
							size > 0
							include_locked = yes
						}
					}
					add_extra_state_shared_building_slots = 1
					add_building_construction = {
						type = arms_factory
						level = 1
						instant_build = yes
					}
				}				
			}

			add_tech_bonus = {
				name = land_doc_bonus
				bonus = 1.0
				uses = 2
				category = land_doctrine
			}
		}
	}

	focus = {
		id = ITA_modernized_artillery
		icon = GFX_ITA_Pionner_Dual_Purpose_Guns
		prerequisite = { focus = ITA_army_primacy }
		x = -1
		y = 1
		relative_position_id = ITA_army_primacy
		cost = 10
		ai_will_do = {
			factor = 1
		}

		available_if_capitulated = yes
		search_filters = { FOCUS_FILTER_RESEARCH }

		completion_reward = {
			add_tech_bonus = {
				name = arty_bonus
				bonus = 1.0
				uses = 2
				category = artillery
			}
		}
	}

	focus = {
		id = ITA_modernized_army
		icon = GFX_focus_ITA_army
		prerequisite = { focus = ITA_army_primacy }
		x = -2
		y = 0
		relative_position_id = ITA_modernized_artillery
		cost = 10
		ai_will_do = {
			factor = 1
		}

		available_if_capitulated = yes
		search_filters = { FOCUS_FILTER_RESEARCH }

		completion_reward = {
			army_experience = 5
			add_tech_bonus = {
				name = special_bonus
				bonus = 1.0
				uses = 1
				technology = tech_recon
				technology = tech_recon2
				technology = tech_recon3
			}
			add_tech_bonus = {
				name = land_doc_bonus
				bonus = 1.0
				uses = 2
				category = land_doctrine
			}
		}
	}

	focus = {
		id = ITA_special_forces
		icon = GFX_ITA_Return_of_the_Arditi
		text = special_forces
		prerequisite = { focus = ITA_modernized_army focus = ITA_modernized_artillery }
		x = 1
		y = 1
		relative_position_id = ITA_modernized_army
		cost = 10
		ai_will_do = {
			factor = 1
		}

		available_if_capitulated = yes
		search_filters = { FOCUS_FILTER_RESEARCH }

		completion_reward = {
			army_experience = 5
			add_tech_bonus = {
				name = special_bonus
				bonus = 1.0
				uses = 1
				technology = paratroopers
				technology = paratroopers2
			}
			add_tech_bonus = {
				name = special_bonus
				ahead_reduction = 2
				uses = 1
				technology = tech_mountaineers2
			}
		}
	}

	focus = {
		id = ITA_armored_effort
		icon = GFX_focus_ITA_tank
		prerequisite = { focus = ITA_special_forces }
		x = 0
		y = 1
		relative_position_id = ITA_special_forces
		cost = 10
		ai_will_do = {
			factor = 1
		}

		available_if_capitulated = yes
		search_filters = { FOCUS_FILTER_RESEARCH }

		completion_reward = {
			army_experience = 5
			add_tech_bonus = {
				name = armor_bonus
				bonus = 1.2
				uses = 2
				category = armor
			}
		}
	}

	focus = {
		id = ITA_mare_nostrum
		icon = GFX_ITA_Regia_Marina
		x = 7
		y = 0
		cost = 10
		ai_will_do = {
			factor = 5
		}

		available_if_capitulated = yes
		search_filters = { FOCUS_FILTER_INDUSTRY FOCUS_FILTER_RESEARCH }

		completion_reward = {
			navy_experience = 50
			random_owned_controlled_state = {
				limit = {
					NOT={OR={state=115 state=114}}
					is_core_of=ROOT
					
					free_building_slots = {
						building = dockyard
						size > 3
						include_locked = yes
					}
				}
				add_extra_state_shared_building_slots = 4
				add_building_construction = {
					type = dockyard
					level = 4
					instant_build = yes
				}
			}
			random_owned_controlled_state = {
				limit = {
					is_core_of=ROOT
					NOT={OR={state=115 state=114}}
					
					free_building_slots = {
						building = dockyard
						size > 3
						include_locked = yes
					}
				}
				add_extra_state_shared_building_slots = 4
				add_building_construction = {
					type = dockyard
					level = 4
					instant_build = yes
				}
			}

			

			add_tech_bonus = {
				name = naval_doc_bonus
				bonus = 1.0
				uses = 2
				category = naval_doctrine
			}
						custom_effect_tooltip = available_designer
						show_ideas_tooltip = crda
		}
	}

	focus = {
		id = ITA_air_innovation
		icon = GFX_ITA_Regia_Aeronautica
		text = "Regia Aeronautica"
		prerequisite = { focus = ITA_army_primacy focus = ITA_mare_nostrum }
		x = 1
		y = 1
		relative_position_id = ITA_army_primacy
		cost = 5
		ai_will_do = {
			factor = 1
		}

		available_if_capitulated = yes
		search_filters = { FOCUS_FILTER_RESEARCH }

		completion_reward = {
			air_experience = 75
			add_tech_bonus = {
				name = fighter_bonus
				bonus = 1.0
				uses = 1
				category = light_fighter
			}
			add_tech_bonus = {
				name = air_doc_bonus
				bonus = 1.0
				uses = 2
				category = air_doctrine
			}
		}
	}

	focus = {
		id = ITA_carrier_effort
		icon = GFX_goal_generic_navy_carrier
		prerequisite = { focus = ITA_mare_nostrum }
		x = 1
		y = 1
		relative_position_id = ITA_mare_nostrum
		cost = 5
		ai_will_do = {
			factor = 1
		}

		available_if_capitulated = yes
		search_filters = { FOCUS_FILTER_RESEARCH }

		completion_reward = {
			add_tech_bonus = {
				name = cv_bonus
				bonus = 1.0
				uses = 2
				category = cv_tech
			}
		}
	}

	focus = {
		id = ITA_capital_ships
		icon = GFX_goal_generic_navy_battleship
		prerequisite = { focus = ITA_mare_nostrum }
		x = 3
		y = 1
		relative_position_id = ITA_mare_nostrum
		cost = 5
		ai_will_do = {
			factor = 1
		}

		available_if_capitulated = yes
		search_filters = { FOCUS_FILTER_RESEARCH }

		completion_reward = {
			navy_experience = 25
			add_tech_bonus = {
				name = bb_bonus
				bonus = 1.0
				uses = 2
				category = bb_tech
				category = bc_tech
			}
			add_tech_bonus = {
				name = cr_bonus
				bonus = 1.0
				uses = 2
				category = cl_tech
				category = ca_tech
			}
		}
	}

	focus = {
		id = ITA_bomber_effort
		icon = GFX_goal_generic_air_bomber
		prerequisite = { focus = ITA_army_primacy }
		prerequisite = { focus = ITA_air_innovation }
		x = 0
		y = 3
		relative_position_id = ITA_army_primacy
		cost = 10
		ai_will_do = {
			factor = 1
		}

		available_if_capitulated = yes
		search_filters = { FOCUS_FILTER_RESEARCH }

		completion_reward = {

			add_tech_bonus = {
				name = ITA_bomber_effort
				bonus = 1.0
				uses = 1
				category = tactical_bomber
			}
			add_tech_bonus = {
				name = ITA_bomber_effort
				bonus = 1.0
				uses = 1
				category = cas_bomber
			}
		}
	}

	focus = {
		id = ITA_naval_air_effort
		icon = GFX_goal_generic_air_naval_bomber
		text = naval_air_effort
		prerequisite = { focus = ITA_air_innovation }
		prerequisite = { focus = ITA_carrier_effort }
		x = 1
		y = 2
		relative_position_id = ITA_air_innovation
		cost = 10
		ai_will_do = {
			factor = 1
		}

		available_if_capitulated = yes

		completion_reward = {
			air_experience = 400

			add_tech_bonus = {
				name = naval_air_effort
				bonus = 1.0
				uses = 1
				category = naval_air
			}
		}
	}

	focus = {
		id = ITA_atlantic_fleet
		icon = GFX_goal_generic_navy_doctrines_tactics
		prerequisite = { focus = ITA_carrier_effort }
		prerequisite = { focus = ITA_capital_ships }
		mutually_exclusive = { focus = ITA_submarine_effort }
		
		x = 1
		y = 2
		relative_position_id = ITA_carrier_effort
		cost = 5
		ai_will_do = {
			factor = 1
		}

		available_if_capitulated = yes
		search_filters = { FOCUS_FILTER_RESEARCH }

		completion_reward = {
			navy_experience = 25
			add_tech_bonus = {
				name = ITA_atlantic_fleet
				bonus = 1.0
				uses = 1
				category = cv_tech
			}
			add_tech_bonus = {
				name = ITA_atlantic_fleet
				bonus = 1.0
				uses = 1
				category = bb_tech
			}
			random_owned_controlled_state = {
				limit = {
					NOT={OR={state=115 state=114}}
					is_core_of=ROOT
					
					free_building_slots = {
						building = dockyard
						size > 3
						include_locked = yes
					}
				}
				add_extra_state_shared_building_slots = 6
				add_building_construction = {
					type = dockyard
					level = 4
					instant_build = yes
				}
				add_building_construction = {
					type = fuel_silo
					level = 2
					instant_build = yes
				}
			}
		}
	}

	focus = {
		id = ITA_marines_and_landing_craft
		icon = GFX_goal_generic_amphibious_assault
		prerequisite = { focus = ITA_atlantic_fleet }
		x = 0
		y = 1
		relative_position_id = ITA_atlantic_fleet
		cost = 10
		ai_will_do = {
			factor = 1
		}

		available_if_capitulated = yes
		search_filters = { FOCUS_FILTER_RESEARCH }

		completion_reward = {
			add_tech_bonus = {
				name = ITA_marines_and_landing_craft
				bonus = 1.0
				uses = 1
				technology = marines
				technology = marines2
			}
			add_tech_bonus = {
				name = ITA_marines_and_landing_craft
				bonus = 1.0
				uses = 1
				technology = transport
				technology = landing_craft
				technology = tank_landing_craft
			}
		}
	}

	focus = {
		id = ITA_air_innovation_2
		icon = GFX_goal_generic_build_airforce
		text = air_innovation_2
		prerequisite = { focus = ITA_bomber_effort focus = ITA_naval_air_effort }
		x = 1
		y = 1
		relative_position_id = ITA_bomber_effort
		cost = 10
		ai_will_do = {
			factor = 1
		}

		available_if_capitulated = yes
		search_filters = { FOCUS_FILTER_RESEARCH }

		completion_reward = {
			add_tech_bonus = {
				name = fighter_bonus
				bonus = 1.0
				uses = 1
				category = light_fighter
			}
			add_tech_bonus = {
				name = air_doc_bonus
				bonus = 1.0
				uses = 2
				category = air_doctrine
			}
		}
	}

	focus = {
		id = ITA_jet_engine_effort
		icon = GFX_focus_rocketry
		prerequisite = { focus = ITA_air_innovation_2 }
		x = 0
		y = 1
		relative_position_id = ITA_air_innovation_2
		cost = 10
		ai_will_do = {
			factor = 1
		}

		available_if_capitulated = yes
		search_filters = { FOCUS_FILTER_RESEARCH }

		completion_reward = {
		# Caproni Campini N.1
			add_tech_bonus = {
				name = ITA_jet_engine_effort
				bonus = 1.0
				uses = 2
				category = rocketry
			}
		}
	}

	focus = {
		id = ITA_light_ship_effort
		icon = GFX_ITA_Decima_Flottiglia_MAS
		x = 12
		y = 1
		cost = 5
		ai_will_do = {
			factor = 1
		}

		available_if_capitulated = yes
		search_filters = { FOCUS_FILTER_RESEARCH }

		completion_reward = {
			add_tech_bonus = {
				name = dd_bonus
				bonus = 1.0
				uses = 1
				category = dd_tech
			}
			add_tech_bonus = {
				name = con_def_bonus
				bonus = 1.0
				uses = 1
				technology = convoy_sailing
				technology = convoy_sailing_ti
				technology = convoy_sailing_bs
			}
		}
	}

	focus = {
		id = ITA_escort_effort
		icon = GFX_goal_generic_navy_anti_submarine
		prerequisite = { focus = ITA_light_ship_effort }
		x = 1
		y = 1
		relative_position_id = ITA_light_ship_effort
		cost = 5
		ai_will_do = {
			factor = 1
		}
		search_filters = { FOCUS_FILTER_RESEARCH }

		available_if_capitulated = yes

		completion_reward = {
			add_tech_bonus = {
				name = ITA_escort_effort
				bonus = 1.0
				uses = 1
				category = dd_tech
			}
			add_tech_bonus = {
				name = ITA_escort_effort
				bonus = 1.0
				uses = 2
				technology = convoy_escorts
				technology = convoy_escorts_bs
				technology = escort_carriers
			}
		}
	}

	focus = {
		id = ITA_submarine_effort
		icon = GFX_goal_generic_navy_submarine
		text = submarine_effort
		prerequisite = { focus = ITA_light_ship_effort }
		mutually_exclusive = { focus = ITA_atlantic_fleet }
		x = -1
		y = 2
		relative_position_id = ITA_light_ship_effort
		cost = 5
		ai_will_do = {
			factor = 1
		}

		available_if_capitulated = yes
		search_filters = { FOCUS_FILTER_RESEARCH }

		completion_reward = {
			add_tech_bonus = {
				name = ss_bonus
				bonus = 1.0
				uses = 1
				category = ss_tech
			}
			add_tech_bonus = {
				name = sub_op_bonus
				bonus = 1.0
				uses = 2
				technology = submarine_operations
				technology = undersea_blockade
				technology = convoy_interdiction
				technology = submarine_offensive
			}
		}
	}

	focus = {
		id = ITA_sea_wolves
		icon = GFX_goal_generic_wolf_pack
		prerequisite = { focus = ITA_submarine_effort }
		prerequisite = { focus = ITA_german_millitary_cooperation }
		available = {
		}
		x = 0
		y = 2
		relative_position_id = ITA_submarine_effort
		cost = 5
		ai_will_do = {
			factor = 1
		}

		available_if_capitulated = yes
		search_filters = { FOCUS_FILTER_RESEARCH }

		completion_reward = {
			navy_experience = 25
			add_tech_bonus = {
				name = ITA_sea_wolves
				bonus = 1.0
				uses = 1
				category = ss_tech
			}
			add_tech_bonus = {
				name = ITA_sea_wolves
				bonus = 1.0
				uses = 2
				category = submarine_doctrine
			}
		}
	}

	focus = {
		id = ITA_victoryinETH
		icon = GFX_focus_ita_ethiopia
		available = {
		}

		available_if_capitulated = yes

		x = 16
		y = 0
		cost = 10
		ai_will_do = {
			factor = 1
		}	
		search_filters = { FOCUS_FILTER_STABILITY FOCUS_FILTER_WAR_SUPPORT}

		completion_reward = {
			add_stability = 0.1
			add_war_support = 0.1
		    add_political_power = 180
		}
	}
	
	focus = {
		id = ITA_slovenia_dalmatia_claims
		icon = GFX_goal_generic_demand_territory
		prerequisite = { focus = ITA_victoryinETH }
		x = 0
		y = 1
		relative_position_id = ITA_victoryinETH
		cost = 5
		ai_will_do = {
			factor = 1
		}

		bypass = {
			NOT = { country_exists = YUG }
		}

		completion_reward = {
			add_state_claim = 102
			add_state_claim = 103
			add_named_threat = { threat = 4 name = ITA_slovenia_dalmatia_claims_threat }
			USA = {
				set_country_flag = { flag = USA_yugoslavia_window days = 60 value = 1 }
			}
			YUG = {
				add_opinion_modifier = { target = ITA modifier = claimed_western_yugoslavia }
				if = {
					limit = {
						ROOT = { has_government = fascism }
						NOT = { has_government = fascism }
						NOT = { has_idea_with_trait = fascist_demagogue }
						fascism < 0.3
					}
					add_popularity = {
						ideology = fascism
						popularity = -0.07
					}
				}
				if = {
					limit = {
						ROOT = { has_government = democratic }
						NOT = { has_government = democratic }
						NOT = { has_idea_with_trait = democratic_reformer }
						democratic < 0.3
					}
					add_popularity = {
						ideology = democratic
						popularity = -0.07
					}
				}
			}

			hidden_effect = {
				news_event = { hours = 6 id = news.192 }
			}
		}
	}

	
	focus = {
		id = ITA_bulgaria_friend
		icon = GFX_ITA_Rome_Berlin_Axis
		prerequisite = { focus = ITA_slovenia_dalmatia_claims }
		x = 0
		y = 1
		relative_position_id = ITA_slovenia_dalmatia_claims
		cost = 5
		ai_will_do = {
			factor = 1
		}
		available = {
		}
		completion_reward = {
			GER = {
				add_opinion_modifier = { target = ITA modifier = pact_of_steel_opinion }
				add_relation_modifier = { target = ITA modifier = Stahlpakt}
			}
			add_opinion_modifier = { target = GER modifier = pact_of_steel_opinion }
			add_relation_modifier = { target = GER modifier = Stahlpakt}
			hidden_effect = {
				news_event = { hours = 6 id = news.184 }
				GER = {
					add_opinion_modifier = { target = ITA modifier = pact_of_steel_opinion_hidden }
				}
				add_opinion_modifier = { target = GER modifier = pact_of_steel_opinion_hidden }
			}
		}
		
	}

	

	focus = {
		id = ITA_pact_of_steel
		icon = GFX_goal_generic_major_alliance
		prerequisite = { focus = ITA_bulgaria_friend }
		available = {
		}
		x = -1
		y = 1
		relative_position_id = ITA_bulgaria_friend
		cost = 5
		ai_will_do = {
			factor = 10

			modifier = {
				factor = 0.5
				ai_irrationality > 20
			}

			modifier = {
				factor = 0.5
				ai_irrationality > 25
			}

			modifier = {
				factor = 0.1
				ai_irrationality > 30
			}

		}
		completion_reward = {
			
			ALB = { country_event = { id = italy.3 } }
		
			
			
			add_threat = 7
			BUL = {
				if = {
					limit = { ROOT = { has_government = fascism } }
					add_timed_idea = { idea = fascist_influence days = 1095 }
				}
				if = {
					limit = { ROOT = { has_government = democratic } }
					add_timed_idea = { idea = democratic_influence days = 1095 }
				}
				if = {
					limit = { ROOT = { has_government = communism } }
					add_timed_idea = { idea = communist_influence days = 1095 }
				}
				country_event = { id = generic.1 }
			}
			
		}
	}

	
	focus = {
		id = ITA_german_millitary_cooperation
		icon = GFX_goal_generic_military_deal
		prerequisite = { focus = ITA_pact_of_steel }

		available = {
		}
		
		x = -2
		y = 1
		relative_position_id = ITA_pact_of_steel
		cost = 10
		ai_will_do = {
			factor = 10
		}	
		search_filters = { FOCUS_FILTER_RESEARCH }

		completion_reward = {
			add_ideas = ITA_german_millitary_cooperation_focus
		}
	}


	focus = {
		id = ITA_romania_friend
		icon = GFX_ITA_Regio_Esercito
		prerequisite = { focus = ITA_bulgaria_friend }
		x = 1
		y = 1
		relative_position_id = ITA_bulgaria_friend
		cost = 5
		ai_will_do = {
			factor = 1
		}
		available = {
		}
		
		
		completion_reward = {
			add_ideas = military_youth_focus
			
		}
	}

	focus = {
		id = ITA_german_rd_treaty
		icon = GFX_goal_generic_scientific_exchange
		prerequisite = { focus = ITA_pact_of_steel }
		available = {
		}
		cancel = { has_war_with = GER }
		x = 0
		y = 1
		relative_position_id = ITA_pact_of_steel
		cost = 5
		ai_will_do = {
			factor = 1
		}

		available_if_capitulated = yes
		search_filters = { FOCUS_FILTER_RESEARCH }

		completion_reward = {
			add_stability = 0.075
			GER = {
				country_event = { id = italy.5 days = 1 }
				custom_effect_tooltip = needs_approval
			}
			add_to_tech_sharing_group = axis_research
			effect_tooltip = {
				add_tech_bonus = {
					name = synth_bonus
					bonus = 1.0
					uses = 1
					category = synth_resources
				}
				# Balance research bonus to 2 techs in armor, also in event
				add_tech_bonus = {
					name = armor_bonus
					bonus = 1.0
					uses = 2
					category = armor
				}
			}
		}
	}

	focus = {
		id = ITA_secret_weapons
		icon = GFX_goal_generic_secret_weapon
		text = secret_weapons
		prerequisite = { focus = ITA_german_millitary_cooperation }
		available = {
		}
		x = 1
		y = 1
		relative_position_id = ITA_german_millitary_cooperation
		cost = 10
		ai_will_do = {
			factor = 1
		}

		available_if_capitulated = yes
		search_filters = { FOCUS_FILTER_RESEARCH }

		completion_reward = {
			add_tech_bonus = {
				name = secret_bonus
				bonus = 1.0
				uses = 2
				category = electronics
				category = rocketry
				category = nuclear
			}
		}
	}


	focus = {
		id = ITA_greece_war_goal
		icon = GFX_focus_ITA_balkan
		prerequisite = { focus = ITA_pact_of_steel }
		available = {

			FRA = { has_capitulated = yes }
			
		}
		will_lead_to_war_with = GRE
		x = 2
		y = 1
		relative_position_id = ITA_pact_of_steel
		cost = 1
		ai_will_do = {
			factor = 10
		}	
		completion_reward = {
		
		
		
		
		
		
			create_wargoal = {
				type = take_state_focus
				target = GRE
				generator = { 47 } # Athens
			}
				create_wargoal = {
				type = take_state_focus
				target = YUG
				generator = { 103 } # Dalmatia
			}

			hidden_effect = {
				news_event = { hours = 6 id = news.186 } 
			102 = {	add_claim_by  = GER}
			}
		}

	}


	focus = {
		id = ITA_rome
		icon = GFX_ITA_Italia_Imperiale
		prerequisite = { focus = ITA_greece_war_goal }
		available = {
 
		446={is_controlled_by_ROOT_or_ally = yes}
		116={is_controlled_by_ROOT_or_ally = yes}
		183={is_controlled_by_ROOT_or_ally = yes}
		182={is_controlled_by_ROOT_or_ally = yes}
			
		}
		
		x = 2
		y = 2
		relative_position_id = ITA_pact_of_steel
		cost = 5
		ai_will_do = {
			factor = 10
		}	
		completion_reward = {
		
		add_ideas = ITA_roman
		
		
		
		}

	}









}