
state={
	id=198
	name="STATE_198"
	manpower = 1893391

	state_category = large_town

	history={
		victory_points = {
			476 3
		}
		owner = SOV
		buildings = {
			infrastructure = 4
			air_base = 5
		}
		add_core_of = SOV
	}

	provinces={
		476 6455 6480 9423 9435 9481 9576 
	}
}
