
state={
	id=199
	name="STATE_199"
	manpower = 1424022
	
	state_category = town

	history={
		victory_points = {
			3457 3
		}
		owner = SOV
		buildings = {
			infrastructure = 4
			air_base = 3
		}
		add_core_of = SOV
	}

	provinces={
		462 3430 3457 3511 6429 6509 
	}
}
