
state={
	id=203
	name="STATE_203"
	manpower = 2405190
	
	state_category = large_town

	history={
		victory_points = {
			488 5
		}
		owner = SOV
		buildings = {
			infrastructure = 4
			air_base = 5
		}
		add_core_of = SOV
	}

	provinces={
		434 458 488 3452 3468 6451 6478 9451 9491 11409 11424 11438 11454 11530 
	}
}
