
state={
	id=204
	name="STATE_204" # Bobruysk
	manpower = 1041084
	
	state_category = rural

	history={
		victory_points = {
			3350 5
		}
		victory_points = {
			11313 3
		}
		owner = SOV
		buildings = {
			infrastructure = 4
		}
		add_core_of = SOV
	}

	provinces={
		304 331 360 386 3350 3759 6373 11313 
	}
}
