
state={
	id=241
	name="STATE_241" # Gomel
	manpower = 943422
	
	state_category = rural

	history={
		owner = SOV
		victory_points = {
			9288 15
		}
		buildings = {
			infrastructure = 4
			air_base = 3
		}
		add_core_of = SOV
	}

	provinces={
		289 6233 6344 6354 9247 9288 9342 9371 9396 11230 11271 11355 11383 
	}
}
