state={
id=267
name="STATE_267"
manpower = 1
state_category = town
resources={
}
history={
victory_points = {
10737 5
}
}
provinces={
5082 7448 7519 7584 7916 7984 10476 10737 10781 10826 10852 10896 12248 12314 12653 12769 12831 12877
}
}
