state={
id=304
name="STATE_304"
manpower = 1
resources={
}
state_category = town
history={
victory_points = {
7630 5
}
victory_points = {
4611 1
}
}
provinces={
1633 4611 7630 10482
}
}
