state=
{
id=319
name="STATE_319"
manpower = 1
state_category = town
resources={
}
history=
{
victory_points = {
7660 5
}
victory_points = {
4598 1
}
}
provinces={
4598 7632 7660 10484
}
}
