
state={
	id=32
	name="STATE_32" 
	manpower = 1007500
	
	state_category = town
	
	

	history={
		owner = FRA
		buildings = {
			infrastructure = 4
		}
		victory_points = {
			3768 1 
		}
		add_core_of = FRA
	}

	provinces={
		762 780 3589 3768 6784 11713 
	}
}
