state= {
	id=341
	name="STATE_341"
	manpower = 1
	resources={
		chromium=45 # was: 84
		steel = 10 # was: 20
	}
	
	state_category = city

	history= {
		owner = TUR
		victory_points = {
			9833 20
		}
		buildings = {
			infrastructure = 5
			
			9833 = {
				naval_base = 8
			}
		}
		add_core_of = TUR
	}
	provinces=
	{
849 922 3879 3893 6895 9833 11829 11842 	}
}
