
state={
	id=414
	name="STATE_414"
	manpower = 486013
	
	state_category = wasteland
 impassable = yes
	history={
		owner = PER
		buildings = {
			infrastructure = 1
		}
		victory_points = {
			10913 1 
		}
		add_core_of = PER
	}

	provinces={
		1986 7990 10759 10890 10913 11249 12739 12809 12852 12895 
	}
}
