
state={
	id=416
	name="STATE_416"
	manpower =  332362
	state_category = wasteland

	history={
		owner = PER
		buildings = {
			infrastructure = 1
		}
		victory_points = {
			5029 1 
		}
		add_core_of = PER
	}

	provinces={
		1521 2000 5029 10351
	}
}
