state={
id=436
name="STATE_436"
manpower = 14123100
state_category = rural
resources={
chromium=4
tungsten = 30
}
history={
owner = RAJ
add_core_of=RAJ
buildings = {
infrastructure = 4
arms_factory = 1
industrial_complex = 1
}
}
provinces={
1510 4557 4883 4950 4953 7430 7497 7574 7619 8120 10030 10401 10801 10872 12375 12420 12480 12781 12799 12854
}
}
