state= {
id=623
name="STATE_623"
manpower = 2010656
state_category = city
resources={
rubber=70
oil=10
}
history= {
owner = USA
add_core_of=SWE
buildings = {
infrastructure = 4
industrial_complex = 1
12213 = {
naval_base = 1
}
1415 = {
naval_base = 1
}
}
victory_points = {
1415 1
}
victory_points = {
12213 1
}
}
provinces={
1388 1415 4101 4214 4233 4350 4368 4423 7325 7439 10167 10241 10252 10280 10298 12213 12253
}
}
