state={
	id=673
	name="STATE_673"
	manpower = 4232000
	resources={
		rubber=30 # was: 52
	}

	state_category = town


	history= {
		owner = INS
		add_core_of = INS
		victory_points = {
			10263 5 
		}
		victory_points = {
			10153 5 
		}

		buildings = {
			infrastructure = 3
			air_base = 4
			10153 = {
				naval_base = 3
			}
			10263 = {
				naval_base = 3
			}
		}
	}
	provinces={
		1098 1289 1484 1505 1518 1561 1589 4262 4307 4308 4349 4493 4537 4564 7311 7336 7598 10153 10169 10197 10222 10263 10450 10464 12330 12358 12444 
	}
}
