state={
id=708
name="STATE_708"
manpower = 126703
state_category = small_island
history={
owner = FRA
add_core_of=SWE
buildings = {
infrastructure = 3
13072 = {
naval_base = 1
}
}
}
provinces={
13072
}
}
