state={
id=725
name="STATE_725"
manpower=5785
state_category = tiny_island
history={
owner = ENG
add_core_of=SWE
buildings = {
infrastructure = 3
13038 = {
naval_base = 1
}
}
victory_points = {
13038 1
}
}
provinces={
13038
}
}
