state={
	id=738
	name="STATE_738"
    resources={
rubber=30
aluminium=10
}
	history={
		owner = INS
		add_core_of = INS
		buildings = {
			infrastructure = 1

			4579 = {
				naval_base = 1

			}


		}

	}

	provinces={
		4579 
	}
	manpower=36146
	buildings_max_level_factor=1	
	state_category="small_island"
}
