state={
id=760
name="STATE_760"
provinces={
1838 4704 4843 7732 10839 12524 12598 12671
}
manpower=1
buildings_max_level_factor=1.000
state_category = rural
history={
buildings = {
infrastructure = 3
}
}
}
