state=
{
	id=766
	name="STATE_766"
	manpower = 566600
	
	state_category = rural
	
	history= {
		victory_points = {
			6727 1
		}
		owner = ROM
		buildings = {
			infrastructure = 4
			dockyard = 1
			air_base = 5
			6727 = {
				naval_base = 3
			}
		}
		add_core_of = ROM
	}
	provinces=
	{
3701 3704 6727 6743	}
}
