state={
id=769
name="STATE_769"
state_category = pastoral
history={
owner = BEL
add_core_of=SWE
victory_points = {
2220 1
}
buildings = {
infrastructure = 2
}
}
provinces={
2220
}
manpower=2145731
buildings_max_level_factor=1.000
}
