state={
id=779
name="STATE_779"
manpower = 3850734
state_category = pastoral
history={
owner = FRA
add_core_of=SWE
victory_points = {
10803 1
}
buildings = {
infrastructure = 3
10803 = {
naval_base = 1
}
}
}
provinces={
5013 5070 8065 8122 10762 10803
}
}
