state={
id=795
name="STATE_795"
resources={
}
history={
victory_points = {
9869 1
}
victory_points = {
924 1
}
buildings = {
}
}
provinces={
844 924 3846 3886 3926 6986 9869 11768
}
manpower=780674
buildings_max_level_factor=1.000
state_category=rural
}
