﻿###########################
# Yugoslavian Events
###########################

add_namespace = DOD_yugoslavia


#Yugoslavia wants to buy planes - event for GER,FRA,ENG,ITA
country_event = {
	id = DOD_yugoslavia.20
	title = DOD_yugoslavia.20.t
	desc = DOD_yugoslavia.20.desc
	picture = GFX_report_event_fighters
	
	is_triggered_only = yes
	
	option = { # send some fighters
		name = DOD_yugoslavia.20.a
		ai_chance = {
			factor = 70
		}	
		trigger = {
			has_equipment = { fighter_equipment > 50 }
			OR = { tag = GER tag = ENG tag = FRA tag = ITA}
		}
		send_equipment = {
			target = YUG
			type = fighter_equipment
			amount = 50
		}
		add_timed_idea = { idea = YUG_air_payment days = 180 }

	}	
	option = { # send some bombers
		name = DOD_yugoslavia.20.b
		ai_chance = {
			factor = 70
		}
		trigger = {
			has_equipment = { tac_bomber_equipment > 25 }
						OR = { tag = GER tag = ENG tag = FRA tag = ITA}
		}
		send_equipment = {
			target = YUG
			type = tac_bomber_equipment
			amount = 25
		}	
		add_timed_idea = { idea = YUG_air_payment days = 180 }

	}

	option = { # divert some fighters from production
		name = DOD_yugoslavia.20.d
		ai_chance = {
			factor = 70
		}	
		trigger = {
			NOT = { has_equipment = { fighter_equipment > 50 } }
						OR = { tag = GER tag = ENG tag = FRA tag = ITA}
		}
		add_timed_idea = { idea = YUG_air_payment days = 180 }
		add_timed_idea = { idea = YUG_fighter_production_diverted days = 120 }

	}

	option = { # divert some bombers from production
		name = DOD_yugoslavia.20.e
		ai_chance = {
			factor = 70
		}
		trigger = {
			NOT = { has_equipment = { tac_bomber_equipment > 25 } }
						OR = { tag = GER tag = ENG tag = FRA tag = ITA}
		}
		add_timed_idea = { idea = YUG_air_payment days = 180 }
		add_timed_idea = { idea = YUG_bomber_production_diverted days = 120 }

	}
	option = { # no
		name = DOD_yugoslavia.20.c
		ai_chance = {
			factor = 30
		}	
	}	
		
	
}
