﻿###########################
# Romanian Events
###########################

add_namespace = romania

country_event = { 
id = romania.145
	title = romania.145.t
	desc = romania.145.d
	picture = GFX_report_event_axisminor_startup
		
	is_triggered_only = yes
   option = {
   name = romania.145.a
   }
   }

