﻿### Vichy ###
division_template = {
	name = "Division d'Infanterie Vichy"		# Infantry Division

	regiments = {
		infantry = { x = 0 y = 0 }
		infantry = { x = 0 y = 1 }
		infantry = { x = 0 y = 2 }
		infantry = { x = 0 y = 3 }
		infantry = { x = 0 y = 4 }
		infantry = { x = 1 y = 0 }
		infantry = { x = 1 y = 1 }
		infantry = { x = 1 y = 2 }
		infantry = { x = 1 y = 3 }
		infantry = { x = 1 y = 4 }
		infantry = { x = 2 y = 0 }
		infantry = { x = 2 y = 1 }
		infantry = { x = 2 y = 2 }
		infantry = { x = 2 y = 3 }
		artillery_brigade = { x = 3 y = 0 }
		artillery_brigade = { x = 3 y = 1 }
		artillery_brigade = { x = 3 y = 2 }
		artillery_brigade = { x = 3 y = 3 }
	}
	support = {  
		engineer = { x = 0 y = 0 }      # includes 1x AC comp, 1x L tank comp
		recon = { x = 0 y = 1 }
		artillery = { x = 0 y = 2 }
		signal_company { x = 0 y = 2 }
	}
}

