﻿division_template = {
	name = "District Force"		# Military District Forces (reserve/garrison forces)
	# Note: all forces at reserve levels in 1936

	division_names_group = NZL_MIL_01

	regiments = {
	infantry = { x = 0 y = 0 }
		infantry = { x = 0 y = 1 }
		infantry = { x = 0 y = 2 }
		infantry = { x = 0 y = 3 }
		infantry = { x = 0 y = 4 }
	infantry = { x = 1 y = 0 }
		infantry = { x = 1 y = 1 }
		infantry = { x = 1 y = 2 }
		infantry = { x = 1 y = 3 }
		infantry = { x = 1 y = 4 }
	}
	support = {
       	engineer = { x = 0 y = 0 }
	}
}

division_template = {
	name = "Infantry Division"	

	division_names_group = NZL_MIL_01

	regiments = {
	infantry = { x = 0 y = 0 }
		infantry = { x = 0 y = 1 }
		infantry = { x = 0 y = 2 }
		infantry = { x = 0 y = 3 }
		infantry = { x = 0 y = 4 }
	infantry = { x = 1 y = 0 }
		infantry = { x = 1 y = 1 }
		infantry = { x = 1 y = 2 }
		infantry = { x = 1 y = 3 }
		infantry = { x = 1 y = 4 }
	infantry = { x = 2 y = 0 }
		infantry = { x = 2 y = 1 }
		infantry = { x = 2 y = 2 }
		infantry = { x = 2 y = 3 }
	artillery_brigade = { x = 3 y = 0 }
		artillery_brigade = { x = 3 y = 1 }
		artillery_brigade = { x = 3 y = 2 }
		artillery_brigade = { x = 3 y = 3 }
	}
	support = {
       	engineer = { x = 0 y = 0 }
       	artillery = { x = 0 y = 1 }
	recon = { x = 0 y = 2 }
	}
}

division_template = {
	name = "Armoured Division"

	division_names_group = NZL_ARM_01

	regiments = {
	light_armor = { x = 0 y = 0 }
		light_armor = { x = 0 y = 1 }
		light_armor = { x = 0 y = 2 }
		light_armor = { x = 0 y = 3 }
	light_armor = { x = 1 y = 0 }
		light_armor = { x = 1 y = 1 }
		light_armor = { x = 1 y = 2 }
		light_armor = { x = 1 y = 3 }
	light_armor = { x = 2 y = 0 }
		light_armor = { x = 2 y = 1 }
		light_armor = { x = 2 y = 2 }
		light_armor = { x = 2 y = 3 }
	motorized = { x = 3 y = 0 }
		motorized = { x = 3 y = 1 }
		motorized = { x = 3 y = 2 }
		motorized = { x = 3 y = 3 }
	motorized = { x = 4 y = 0 }
		motorized = { x = 4 y = 1 }
		motorized = { x = 4 y = 2 }
		motorized = { x = 4 y = 3 }
	}
	support = {
       	engineer = { x = 0 y = 0 }
       	artillery = { x = 0 y = 1 }
	recon = { x = 0 y = 2 }
	}
}

units = {
	division= {	
		name = "This is here so you can look at your generals"
		location = 1814
		division_template = "District Force"
		start_experience_factor = 0
		start_equipment_factor = 0.01
	}
}

##### Starting Production #####
instant_effect = {
	add_equipment_production = {
		equipment = {
			type = infantry_equipment_1
			creator = "NZL"
		}
		requested_factories = 1
		progress = 0.62
		efficiency = 100
	}
	add_equipment_production = {
		equipment = {
			type = support_equipment_1
			creator = "NZL" 
		}
		requested_factories = 1
		progress = 0.3
		efficiency = 50
	}
	add_equipment_production = {
		equipment = {
			type = artillery_equipment_1
			creator = "NZL" 
		}
		requested_factories = 1
		progress = 0.3
		efficiency = 50
	}
	add_equipment_production = {
		equipment = {
			type = motorized_equipment_1
			creator = "NZL" 
		}
		requested_factories = 1
		progress = 0.1
		efficiency = 50
	}
}