﻿division_template = {
	name = "Dywizja Piechoty"		
	division_names_group = POL_INF_01

	regiments = {
		infantry = { x = 0 y = 0 }
		infantry = { x = 0 y = 1 }
		infantry = { x = 0 y = 2 }
		infantry = { x = 1 y = 0 }
		infantry = { x = 1 y = 1 }
		infantry = { x = 1 y = 2 }
		infantry = { x = 2 y = 0 }
		infantry = { x = 2 y = 1 }
		infantry = { x = 2 y = 2 }
		infantry = { x = 2 y = 3 }
	}
	support = {
        recon = { x = 0 y = 0 }
	}
}



units = {
}

##### Wojska Lotnicze i Obrony Powietrzne #####

#########################
## STARTING PRODUCTION ##
#########################
instant_effect = {
	add_equipment_production = {
		equipment = {
			type = infantry_equipment_1
			creator = "POL"
		}
		requested_factories = 2
		progress = 0.20
		efficiency = 100
	}
	add_equipment_production = {
		equipment = {
			type = support_equipment_1
			creator = "POL"
		}
		requested_factories = 1
		progress = 0.20
		efficiency = 100
	}
}